…
``` r
library(dplyr)
#> 
#> Attaching package: 'dplyr'
#> The following objects are masked from 'package:stats':
#> 
#>     filter, lag
#> The following objects are masked from 'package:base':
#> 
#>     intersect, setdiff, setequal, union
library(terra)
#> terra 1.7.39
files <- tibble::tibble(fullname = fs::dir_ls("~/bower_dir/", recurse = T, regexp = ".*(tif|hdf)$"))
print(files)
#> # A tibble: 40 × 1
#>    fullname                                                                     
#>    <fs::path>                                                                   
#>  1 …daygrid_swath/s3125/2023/jul/Antarctic3125/asi-AMSR2-s3125-20230716-v5.4.hdf
#>  2 …daygrid_swath/s3125/2023/jul/Antarctic3125/asi-AMSR2-s3125-20230716-v5.4.tif
#>  3 …i_daygrid_swath/s3125/2023/jul/Antarctic3125/asi-AMSR2-s3125-20230716-v5.hdf
#>  4 …i_daygrid_swath/s3125/2023/jul/Antarctic3125/asi-AMSR2-s3125-20230716-v5.tif
#>  5 …daygrid_swath/s3125/2023/jul/Antarctic3125/asi-AMSR2-s3125-20230717-v5.4.hdf
#>  6 …daygrid_swath/s3125/2023/jul/Antarctic3125/asi-AMSR2-s3125-20230717-v5.4.tif
#>  7 …i_daygrid_swath/s3125/2023/jul/Antarctic3125/asi-AMSR2-s3125-20230717-v5.hdf
#>  8 …i_daygrid_swath/s3125/2023/jul/Antarctic3125/asi-AMSR2-s3125-20230717-v5.tif
#>  9 …daygrid_swath/s3125/2023/jul/Antarctic3125/asi-AMSR2-s3125-20230718-v5.4.hdf
#> 10 …daygrid_swath/s3125/2023/jul/Antarctic3125/asi-AMSR2-s3125-20230718-v5.4.tif
#> # ℹ 30 more rows
…
